[
    {
        "nid": "Aura",
        "name": "Aura",
        "desc": "",
        "icon_nid": "Light",
        "icon_index": [
            0,
            4
        ],
        "components": [
            [
                "weapon",
                null
            ],
            [
                "value",
                8000
            ],
            [
                "target_enemy",
                null
            ],
            [
                "min_range",
                1
            ],
            [
                "max_range",
                2
            ],
            [
                "damage",
                12
            ],
            [
                "hit",
                85
            ],
            [
                "crit",
                15
            ],
            [
                "weight",
                15
            ],
            [
                "uses",
                20
            ],
            [
                "level_exp",
                null
            ],
            [
                "weapon_type",
                "Light"
            ],
            [
                "weapon_rank",
                "A"
            ],
            [
                "map_hit_add_blend",
                [
                    255,
                    255,
                    0
                ]
            ],
            [
                "magic",
                null
            ]
        ]
    }
]