[
    {
        "nid": "Divine",
        "name": "Divine",
        "desc": "",
        "icon_nid": "Light",
        "icon_index": [
            0,
            2
        ],
        "components": [
            [
                "weapon",
                null
            ],
            [
                "target_enemy",
                null
            ],
            [
                "level_exp",
                null
            ],
            [
                "damage",
                8
            ],
            [
                "hit",
                85
            ],
            [
                "weapon_type",
                "Light"
            ],
            [
                "weapon_rank",
                "C"
            ],
            [
                "magic",
                null
            ],
            [
                "uses",
                25
            ],
            [
                "weight",
                12
            ],
            [
                "crit",
                10
            ],
            [
                "value",
                2500
            ],
            [
                "min_range",
                1
            ],
            [
                "max_range",
                2
            ],
            [
                "map_hit_add_blend",
                [
                    255,
                    255,
                    0
                ]
            ]
        ]
    }
]