[
    {
        "nid": "Fenrir",
        "name": "Fenrir",
        "desc": "",
        "icon_nid": "Dark",
        "icon_index": [
            0,
            4
        ],
        "components": [
            [
                "weapon",
                null
            ],
            [
                "target_enemy",
                null
            ],
            [
                "min_range",
                1
            ],
            [
                "max_range",
                2
            ],
            [
                "damage",
                15
            ],
            [
                "hit",
                70
            ],
            [
                "crit",
                0
            ],
            [
                "weight",
                18
            ],
            [
                "level_exp",
                null
            ],
            [
                "weapon_type",
                "Dark"
            ],
            [
                "weapon_rank",
                "A"
            ],
            [
                "map_hit_add_blend",
                [
                    72,
                    0,
                    65
                ]
            ],
            [
                "magic",
                null
            ],
            [
                "value",
                9000
            ],
            [
                "uses",
                20
            ]
        ]
    }
]