[
    {
        "nid": "Fire",
        "name": "Fire",
        "desc": "",
        "icon_nid": "Anima",
        "icon_index": [
            0,
            0
        ],
        "components": [
            [
                "weapon",
                null
            ],
            [
                "value",
                560
            ],
            [
                "target_enemy",
                null
            ],
            [
                "min_range",
                1
            ],
            [
                "max_range",
                2
            ],
            [
                "damage",
                5
            ],
            [
                "hit",
                90
            ],
            [
                "crit",
                0
            ],
            [
                "weight",
                4
            ],
            [
                "uses",
                40
            ],
            [
                "level_exp",
                null
            ],
            [
                "weapon_type",
                "Anima"
            ],
            [
                "weapon_rank",
                "E"
            ],
            [
                "map_hit_add_blend",
                [
                    224,
                    96,
                    0
                ]
            ],
            [
                "magic",
                null
            ]
        ]
    }
]