[
    {
        "nid": "Sieglinde",
        "name": "Sieglinde",
        "desc": "Strength +5. Effective against monsters",
        "icon_nid": "Sword",
        "icon_index": [
            0,
            18
        ],
        "components": [
            [
                "weapon",
                null
            ],
            [
                "target_enemy",
                null
            ],
            [
                "level_exp",
                null
            ],
            [
                "damage",
                16
            ],
            [
                "hit",
                90
            ],
            [
                "weapon_type",
                "Sword"
            ],
            [
                "uses",
                30
            ],
            [
                "weight",
                9
            ],
            [
                "status_on_equip",
                "Strength +5"
            ],
            [
                "crit",
                0
            ],
            [
                "min_range",
                1
            ],
            [
                "max_range",
                1
            ],
            [
                "prf_unit",
                [
                    "Eirika"
                ]
            ],
            [
                "effective",
                32
            ],
            [
                "effective_tag",
                [
                    "Monster"
                ]
            ]
        ]
    }
]