[
    {
        "nid": "Stone",
        "name": "Stone",
        "desc": "Petrifies on hit",
        "icon_nid": "Neutral",
        "icon_index": [
            0,
            16
        ],
        "components": [
            [
                "target_enemy",
                null
            ],
            [
                "level_exp",
                null
            ],
            [
                "weapon_type",
                "Dark"
            ],
            [
                "magic",
                null
            ],
            [
                "hit",
                65
            ],
            [
                "status_on_hit",
                "Petrify"
            ],
            [
                "uses",
                5
            ],
            [
                "weight",
                8
            ],
            [
                "locked",
                null
            ],
            [
                "wexp",
                5
            ],
            [
                "min_range",
                1
            ],
            [
                "max_range",
                3
            ],
            [
                "weapon",
                null
            ],
            [
                "no_double",
                null
            ]
        ]
    }
]